…
##### \_\_\_\_\_\_\_\_\_\_\_\_\_\_\_\_\_\_\_\_\_\_\_\_\_\_\_\_\_\_\_\_\_\_\_\_\_\_\_\_\_\_\_\_\_\_\_\_\_\_\_\_\_\_\_\_\_\_\_\_\_\_\_\_\_\_\_\_\_\_\_\_\_\_\_\_\_\_\_\_\_\_\_\_\_\_\_\_\_\_\_\_\_\_\_\_\_\_\_\_\_\_\_\_\_\_\_\_\_\_\_\_\_\_\_\_\_\_\_\_\_\_\_\_\_\_\_\_\_\_\_\_\_\_\_\_\_\_\_

**1. What is the distribution of wine in the data set? Red vs White &
Quality?**

``` r
group_data
```

    ## # A tibble: 6,497 x 13
    ##    `fixed acidity` `volatile acidi~ `citric acid` `residual sugar` chlorides
    ##              <dbl>            <dbl>         <dbl>            <dbl>     <dbl>
    ##  1             7.4            0.7            0                 1.9     0.076
    ##  2             7.8            0.88           0                 2.6     0.098
    ##  3             7.8            0.76           0.04              2.3     0.092
    ##  4            11.2            0.28           0.56              1.9     0.075
    ##  5             7.4            0.7            0                 1.9     0.076
    ##  6             7.4            0.66           0                 1.8     0.075
    ##  7             7.9            0.6            0.06              1.6     0.069
    ##  8             7.3            0.65           0                 1.2     0.065
    ##  9             7.8            0.580          0.02              2       0.073
    ## 10             7.5            0.5            0.36              6.1     0.071
    ## # ... with 6,487 more rows, and 8 more variables: `free sulfur dioxide` <dbl>,
    ## #   `total sulfur dioxide` <dbl>, density <dbl>, pH <dbl>, sulphates <dbl>,
    ## #   alcohol <dbl>, quality <dbl>, Red_or_White <chr>
…
