Group_Project
…
Describe the data cleaning process if you needed There was some small cleaning of the dataset. Two new columns were added: Red_or_White and categorical column for quality. The data for the red and white wine were on two seperate files, we merged those two files into one. To identify which attributes belonged to red wine and which attributes belonged to white wine, the Red_or_White column was added. The categorical quality column was added to better gauge the quality of the wine, the quality can now be classified as low, medium, or high.

What is the distribution of wine in the data set? Red vs White & Quality?

group_data

## # A tibble: 6,497 x 13
##    `fixed acidity` `volatile acidi `citric acid` `residual sugar`
##              <dbl>            <dbl>         <dbl>            <dbl>
##  1             7.4            0.7            0                 1.9
##  2             7.8            0.88           0                 2.6
##  3             7.8            0.76           0.04              2.3
##  4            11.2            0.28           0.56              1.9
##  5             7.4            0.7            0                 1.9
##  6             7.4            0.66           0                 1.8
##  7             7.9            0.6            0.06              1.6
##  8             7.3            0.65           0                 1.2
##  9             7.8            0.580          0.02              2  
## 10             7.5            0.5            0.36              6.1
## #  with 6,487 more rows, and 9 more variables: chlorides <dbl>, `free
## #   sulfur dioxide` <dbl>, `total sulfur dioxide` <dbl>, density <dbl>,
## #   pH <dbl>, sulphates <dbl>, alcohol <dbl>, quality <dbl>,
## #   Red_or_White <chr>
…
